Experiment1.csv

Record Length,Analog:200000
Sample Interval,1.000000E-04
Vertical Units,V,
Vertical Scale,+1.000000E-01
Vertical Offset,-2.850000E-01
Horizontal Units,s
Horizontal Scale,+2.000000E+00
Model,SDS814X HD
Serial Number,SDS08A0X807097
Software Version,3.8.12.1.1.3.8
Source,CH1
Second,Value
-9.9432000000E+00,-1.041677E-03
-9.9431000000E+00,-6.250105E-04
-9.9430000000E+00,-4.166772E-04
-9.9429000000E+00,-6.250105E-04
-9.9428000000E+00,-1.041677E-03
-9.9427000000E+00,-4.166772E-04
-9.9426000000E+00,-2.083438E-04
-9.9425000000E+00,-1.041677E-03
-9.9424000000E+00,-1.041677E-03
-9.9423000000E+00,-4.166772E-04
-9.9422000000E+00,-4.166772E-04
-9.9421000000E+00,-8.333438E-04
-9.9420000000E+00,-8.333438E-04
-9.9419000000E+00,-6.250105E-04
-9.9418000000E+00,-1.250010E-03
-9.9417000000E+00,-1.041677E-03
-9.9416000000E+00,-8.333438E-04
-9.9415000000E+00,-8.333438E-04
-9.9414000000E+00,-8.333438E-04
-9.9413000000E+00,-1.041677E-03
-9.9412000000E+00,-6.250105E-04
-9.9411000000E+00,-8.333438E-04
-9.9410000000E+00,-6.250105E-04
-9.9409000000E+00,-6.250105E-04
-9.9408000000E+00,-6.250105E-04
-9.9407000000E+00,-1.458344E-03
-9.9406000000E+00,-1.041677E-03
-9.9405000000E+00,-1.041677E-03
-9.9404000000E+00,-8.333438E-04
-9.9403000000E+00,-6.250105E-04
-9.9402000000E+00,-1.250010E-03
-9.9401000000E+00,-1.250010E-03
-9.9400000000E+00,-8.333438E-04
-9.9399000000E+00,-6.250105E-04
-9.9398000000E+00,-1.041677E-03
-9.9397000000E+00,-6.250105E-04
-9.9396000000E+00,-1.041677E-03
-9.9395000000E+00,-6.250105E-04
-9.9394000000E+00,-8.333438E-04
-9.9393000000E+00,-1.250010E-03
-9.9392000000E+00,-1.041677E-03
-9.9391000000E+00,-6.250105E-04
-9.9390000000E+00,-6.250105E-04
-9.9389000000E+00,-1.250010E-03
-9.9388000000E+00,-8.333438E-04
-9.9387000000E+00,-6.250105E-04
-9.9386000000E+00,-1.041677E-03
-9.9385000000E+00,-1.041677E-03
-9.9384000000E+00,-1.250010E-03
-9.9383000000E+00,-8.333438E-04
-9.9382000000E+00,-1.041677E-03
-9.9381000000E+00,-1.250010E-03
-9.9380000000E+00,-1.041677E-03
-9.9379000000E+00,-1.041677E-03
-9.9378000000E+00,-8.333438E-04
-9.9377000000E+00,-1.458344E-03
-9.9376000000E+00,-1.041677E-03
-9.9375000000E+00,-8.333438E-04
-9.9374000000E+00,-1.250010E-03
-9.9373000000E+00,-8.333438E-04
-9.9372000000E+00,-1.458344E-03
-9.9371000000E+00,-1.041677E-03
-9.9370000000E+00,-6.250105E-04
-9.9369000000E+00,-1.250010E-03
-9.9368000000E+00,-1.041677E-03
-9.9367000000E+00,-1.250010E-03
-9.9366000000E+00,-8.333438E-04
-9.9365000000E+00,-1.250010E-03
-9.9364000000E+00,-8.333438E-04
-9.9363000000E+00,-1.041677E-03
-9.9362000000E+00,-8.333438E-04
-9.9361000000E+00,-6.250105E-04
-9.9360000000E+00,-1.250010E-03
-9.9359000000E+00,-1.041677E-03
-9.9358000000E+00,-8.333438E-04
-9.9357000000E+00,-6.250105E-04
-9.9356000000E+00,-1.041677E-03
-9.9355000000E+00,-2.083438E-04
-9.9354000000E+00,-1.041677E-03
-9.9353000000E+00,-1.041677E-03
-9.9352000000E+00,-1.250010E-03
-9.9351000000E+00,-1.041677E-03
-9.9350000000E+00,-6.250105E-04
-9.9349000000E+00,-1.041677E-03
-9.9348000000E+00,-1.250010E-03
-9.9347000000E+00,-6.250105E-04
-9.9346000000E+00,-8.333438E-04
-9.9345000000E+00,-4.166772E-04
-9.9344000000E+00,-6.250105E-04
-9.9343000000E+00,-8.333438E-04
-9.9342000000E+00,-6.250105E-04
-9.9341000000E+00,-4.166772E-04
-9.9340000000E+00,-6.250105E-04
-9.9339000000E+00,-8.333438E-04
-9.9338000000E+00,-2.083438E-04
-9.9337000000E+00,-1.041677E-03
-9.9336000000E+00,-6.250105E-04
-9.9335000000E+00,-8.333438E-04
-9.9334000000E+00,-6.250105E-04
-9.9333000000E+00,-6.250105E-04
-9.9332000000E+00,-8.333438E-04
-9.9331000000E+00,-8.333438E-04
-9.9330000000E+00,-1.041677E-03
-9.9329000000E+00,-1.041677E-03
-9.9328000000E+00,-1.041677E-03
-9.9327000000E+00,-1.041677E-03
-9.9326000000E+00,-1.041677E-03
-9.9325000000E+00,-6.250105E-04
-9.9324000000E+00,-8.333438E-04
-9.9323000000E+00,-8.333438E-04
-9.9322000000E+00,-6.250105E-04
-9.9321000000E+00,-1.041677E-03
-9.9320000000E+00,-8.333438E-04
-9.9319000000E+00,-1.041677E-03
-9.9318000000E+00,-1.041677E-03
-9.9317000000E+00,-2.083438E-04
-9.9316000000E+00,-1.041677E-03
-9.9315000000E+00,-8.333438E-04
-9.9314000000E+00,-1.250010E-03
-9.9313000000E+00,-8.333438E-04
-9.9312000000E+00,-8.333438E-04
-9.9311000000E+00,-1.458344E-03
-9.9310000000E+00,-8.333438E-04
-9.9309000000E+00,-1.041677E-03
-9.9308000000E+00,-6.250105E-04
-9.9307000000E+00,-8.333438E-04
-9.9306000000E+00,-4.166772E-04
-9.9305000000E+00,-1.041677E-03
-9.9304000000E+00,-8.333438E-04
-9.9303000000E+00,-8.333438E-04
-9.9302000000E+00,-8.333438E-04
-9.9301000000E+00,-1.458344E-03
-9.9300000000E+00,-8.333438E-04
-9.9299000000E+00,-8.333438E-04
-9.9298000000E+00,-6.250105E-04
-9.9297000000E+00,-6.250105E-04
-9.9296000000E+00,-6.250105E-04
-9.9295000000E+00,-6.250105E-04
-9.9294000000E+00,-1.250010E-03
-9.9293000000E+00,-1.250010E-03
-9.9292000000E+00,-8.333438E-04
-9.9291000000E+00,-1.041677E-03
-9.9290000000E+00,-2.083438E-04
-9.9289000000E+00,-1.041677E-03
-9.9288000000E+00,-4.166772E-04
-9.9287000000E+00,-8.333438E-04
-9.9286000000E+00,-8.333438E-04
-9.9285000000E+00,-8.333438E-04
-9.9284000000E+00,-8.333438E-04
-9.9283000000E+00,-8.333438E-04
-9.9282000000E+00,-1.250010E-03
-9.9281000000E+00,-1.250010E-03
-9.9280000000E+00,-1.041677E-03
-9.9279000000E+00,-1.250010E-03
-9.9278000000E+00,-6.250105E-04
-9.9277000000E+00,-6.250105E-04
-9.9276000000E+00,-1.250010E-03
-9.9275000000E+00,-1.250010E-03
-9.9274000000E+00,-1.041677E-03
-9.9273000000E+00,-6.250105E-04
-9.9272000000E+00,-1.041677E-03
-9.9271000000E+00,-6.250105E-04
-9.9270000000E+00,-1.250010E-03
-9.9269000000E+00,-6.250105E-04
-9.9268000000E+00,-6.250105E-04
-9.9267000000E+00,-1.041677E-03
-9.9266000000E+00,-8.333438E-04
-9.9265000000E+00,-8.333438E-04
-9.9264000000E+00,-1.041677E-03
-9.9263000000E+00,-1.041677E-03
-9.9262000000E+00,-1.250010E-03
-9.9261000000E+00,-1.041677E-03
-9.9260000000E+00,-1.250010E-03
-9.9259000000E+00,-1.250010E-03
-9.9258000000E+00,-1.250010E-03
-9.9257000000E+00,-8.333438E-04
-9.9256000000E+00,-1.250010E-03
-9.9255000000E+00,-6.250105E-04
-9.9254000000E+00,-6.250105E-04
-9.9253000000E+00,-6.250105E-04
-9.9252000000E+00,-1.041677E-03
-9.9251000000E+00,-1.250010E-03
-9.9250000000E+00,-1.041677E-03
-9.9249000000E+00,-8.333438E-04
-9.9248000000E+00,-1.041677E-03
-9.9247000000E+00,-1.041677E-03
-9.9246000000E+00,-1.250010E-03
-9.9245000000E+00,-1.041677E-03
-9.9244000000E+00,-1.041677E-03
-9.9243000000E+00,-1.250010E-03
-9.9242000000E+00,-8.333438E-04
-9.9241000000E+00,-1.041677E-03
-9.9240000000E+00,-1.041677E-03
-9.9239000000E+00,-6.250105E-04
-9.9238000000E+00,-1.250010E-03
-9.9237000000E+00,-1.250010E-03
-9.9236000000E+00,-8.333438E-04
-9.9235000000E+00,-1.041677E-03
-9.9234000000E+00,-1.458344E-03
-9.9233000000E+00,-8.333438E-04
-9.9232000000E+00,-1.250010E-03
-9.9231000000E+00,-6.250105E-04
-9.9230000000E+00,-8.333438E-04
-9.9229000000E+00,-8.333438E-04
-9.9228000000E+00,-1.250010E-03
-9.9227000000E+00,-4.166772E-04
-9.9226000000E+00,-8.333438E-04
-9.9225000000E+00,-1.041677E-03
-9.9224000000E+00,-6.250105E-04
-9.9223000000E+00,-1.041677E-03
-9.9222000000E+00,-4.166772E-04
-9.9221000000E+00,-1.041677E-03
-9.9220000000E+00,-1.041677E-03
-9.9219000000E+00,-6.250105E-04
-9.9218000000E+00,-6.250105E-04
-9.9217000000E+00,-1.041677E-03
-9.9216000000E+00,-1.041677E-03
-9.9215000000E+00,-6.250105E-04
-9.9214000000E+00,-6.250105E-04
-9.9213000000E+00,-1.250010E-03
-9.9212000000E+00,-6.250105E-04
-9.9211000000E+00,-1.041677E-03
-9.9210000000E+00,-1.250010E-03
-9.9209000000E+00,-6.250105E-04
-9.9208000000E+00,-8.333438E-04
-9.9207000000E+00,-8.333438E-04
-9.9206000000E+00,-4.166772E-04
-9.9205000000E+00,-4.166772E-04
-9.9204000000E+00,-1.250010E-03
-9.9203000000E+00,-8.333438E-04
-9.9202000000E+00,-1.041677E-03
-9.9201000000E+00,-6.250105E-04
-9.9200000000E+00,-2.083438E-04
-9.9199000000E+00,-2.083438E-04
-9.9198000000E+00,-8.333438E-04
-9.9197000000E+00,-8.333438E-04
-9.9196000000E+00,-8.333438E-04
-9.9195000000E+00,-1.041677E-03
-9.9194000000E+00,-1.041677E-03
-9.9193000000E+00,-1.041677E-03
-9.9192000000E+00,-6.250105E-04
-9.9191000000E+00,-6.250105E-04
-9.9190000000E+00,-6.250105E-04
-9.9189000000E+00,-1.041677E-03
-9.9188000000E+00,-6.250105E-04
-9.9187000000E+00,-1.041677E-03
-9.9186000000E+00,-8.333438E-04
-9.9185000000E+00,-1.250010E-03
-9.9184000000E+00,-6.250105E-04
-9.9183000000E+00,-8.333438E-04
-9.9182000000E+00,-1.041677E-03
-9.9181000000E+00,-1.041677E-03
-9.9180000000E+00,-1.250010E-03
-9.9179000000E+00,-1.041677E-03
-9.9178000000E+00,-1.250010E-03
-9.9177000000E+00,-8.333438E-04
-9.9176000000E+00,-8.333438E-04
-9.9175000000E+00,-1.041677E-03
-9.9174000000E+00,-8.333438E-04
-9.9173000000E+00,-6.250105E-04
-9.9172000000E+00,-8.333438E-04
-9.9171000000E+00,-2.083438E-04
-9.9170000000E+00,-1.041677E-03
-9.9169000000E+00,-8.333438E-04
-9.9168000000E+00,-1.041677E-03
-9.9167000000E+00,-1.250010E-03
-9.9166000000E+00,-1.041677E-03
-9.9165000000E+00,-1.041677E-03
-9.9164000000E+00,-1.250010E-03
-9.9163000000E+00,-1.041677E-03
-9.9162000000E+00,-6.250105E-04
-9.9161000000E+00,-8.333438E-04
-9.9160000000E+00,-6.250105E-04
-9.9159000000E+00,-1.041677E-03
-9.9158000000E+00,-6.250105E-04
-9.9157000000E+00,-4.166772E-04
-9.9156000000E+00,-8.333438E-04
-9.9155000000E+00,-1.458344E-03
-9.9154000000E+00,-1.666677E-03
-9.9153000000E+00,-1.041677E-03
-9.9152000000E+00,-1.041677E-03
-9.9151000000E+00,-1.250010E-03
-9.9150000000E+00,-8.333438E-04
-9.9149000000E+00,-6.250105E-04
-9.9148000000E+00,-1.250010E-03
-9.9147000000E+00,-1.041677E-03
-9.9146000000E+00,-6.250105E-04
-9.9145000000E+00,-4.166772E-04
-9.9144000000E+00,-1.250010E-03
-9.9143000000E+00,-1.041677E-03
-9.9142000000E+00,-6.250105E-04
-9.9141000000E+00,-1.250010E-03
-9.9140000000E+00,-8.333438E-04
-9.9139000000E+00,-4.166772E-04
-9.9138000000E+00,-1.041677E-03
-9.9137000000E+00,-1.041677E-03
-9.9136000000E+00,-8.333438E-04
-9.9135000000E+00,-8.333438E-04
-9.9134000000E+00,-1.041677E-03
-9.9133000000E+00,-1.250010E-03
-9.9132000000E+00,-1.041677E-03
-9.9131000000E+00,-8.333438E-04
-9.9130000000E+00,-2.083438E-04
-9.9129000000E+00,-8.333438E-04
-9.9128000000E+00,-1.041677E-03
-9.9127000000E+00,-1.041677E-03
-9.9126000000E+00,-8.333438E-04
-9.9125000000E+00,-8.333438E-04
-9.9124000000E+00,-1.250010E-03
-9.9123000000E+00,-6.250105E-04
-9.9122000000E+00,-8.333438E-04
-9.9121000000E+00,-1.041677E-03
-9.9120000000E+00,-1.041677E-03
-9.9119000000E+00,-1.250010E-03
-9.9118000000E+00,-1.250010E-03
-9.9117000000E+00,-6.250105E-04
-9.9116000000E+00,-6.250105E-04
-9.9115000000E+00,-8.333438E-04
-9.9114000000E+00,-1.041677E-03
-9.9113000000E+00,-6.250105E-04
-9.9112000000E+00,-1.041677E-03
-9.9111000000E+00,-1.250010E-03
-9.9110000000E+00,-1.458344E-03
-9.9109000000E+00,-1.250010E-03
-9.9108000000E+00,-8.333438E-04
-9.9107000000E+00,-6.250105E-04
-9.9106000000E+00,-8.333438E-04
-9.9105000000E+00,-6.250105E-04
-9.9104000000E+00,-1.666677E-03
-9.9103000000E+00,-8.333438E-04
-9.9102000000E+00,-6.250105E-04
-9.9101000000E+00,-8.333438E-04
-9.9100000000E+00,-1.041677E-03
-9.9099000000E+00,-6.250105E-04
-9.9098000000E+00,-8.333438E-04
-9.9097000000E+00,-8.333438E-04
-9.9096000000E+00,-1.041677E-03
-9.9095000000E+00,-8.333438E-04
-9.9094000000E+00,-8.333438E-04
-9.9093000000E+00,-8.333438E-04
-9.9092000000E+00,-1.458344E-03
-9.9091000000E+00,-6.250105E-04
-9.9090000000E+00,-8.333438E-04
-9.9089000000E+00,-8.333438E-04
-9.9088000000E+00,-6.250105E-04
-9.9087000000E+00,-1.041677E-03
-9.9086000000E+00,-1.250010E-03
-9.9085000000E+00,-6.250105E-04
-9.9084000000E+00,-1.041677E-03
-9.9083000000E+00,-1.250010E-03
-9.9082000000E+00,-6.250105E-04
-9.9081000000E+00,-1.041677E-03
-9.9080000000E+00,-8.333438E-04
-9.9079000000E+00,-1.041677E-03
-9.9078000000E+00,-8.333438E-04
-9.9077000000E+00,-1.041677E-03
-9.9076000000E+00,-8.333438E-04
-9.9075000000E+00,-8.333438E-04
-9.9074000000E+00,-1.041677E-03
-9.9073000000E+00,-6.250105E-04
-9.9072000000E+00,-6.250105E-04
-9.9071000000E+00,-8.333438E-04
-9.9070000000E+00,-1.041677E-03
-9.9069000000E+00,-6.250105E-04
-9.9068000000E+00,-1.250010E-03
-9.9067000000E+00,-1.250010E-03
-9.9066000000E+00,-1.250010E-03
-9.9065000000E+00,-1.250010E-03
-9.9064000000E+00,-1.250010E-03
-9.9063000000E+00,-8.333438E-04
-9.9062000000E+00,-8.333438E-04
-9.9061000000E+00,-1.041677E-03
-9.9060000000E+00,-8.333438E-04
-9.9059000000E+00,-1.250010E-03
-9.9058000000E+00,-8.333438E-04
-9.9057000000E+00,-8.333438E-04
-9.9056000000E+00,-8.333438E-04
-9.9055000000E+00,-8.333438E-04
-9.9054000000E+00,-1.250010E-03
-9.9053000000E+00,-1.041677E-03
-9.9052000000E+00,-6.250105E-04
-9.9051000000E+00,-1.041677E-03
-9.9050000000E+00,-1.041677E-03
-9.9049000000E+00,-1.250010E-03
-9.9048000000E+00,-8.333438E-04
-9.9047000000E+00,-8.333438E-04
-9.9046000000E+00,-1.041677E-03
-9.9045000000E+00,-6.250105E-04
-9.9044000000E+00,-1.250010E-03
-9.9043000000E+00,-1.041677E-03
-9.9042000000E+00,-8.333438E-04
-9.9041000000E+00,-8.333438E-04
-9.9040000000E+00,-6.250105E-04
-9.9039000000E+00,-6.250105E-04
-9.9038000000E+00,-1.041677E-03
-9.9037000000E+00,-1.250010E-03
-9.9036000000E+00,-6.250105E-04
-9.9035000000E+00,-8.333438E-04
-9.9034000000E+00,-4.166772E-04
-9.9033000000E+00,-8.333438E-04
-9.9032000000E+00,-1.041677E-03
-9.9031000000E+00,-4.166772E-04
-9.9030000000E+00,-1.250010E-03
-9.9029000000E+00,-1.041677E-03
-9.9028000000E+00,-1.250010E-03
-9.9027000000E+00,-8.333438E-04
-9.9026000000E+00,-1.041677E-03
-9.9025000000E+00,-6.250105E-04
-9.9024000000E+00,-6.250105E-04
-9.9023000000E+00,-6.250105E-04
-9.9022000000E+00,-6.250105E-04
-9.9021000000E+00,-1.041677E-03
-9.9020000000E+00,-6.250105E-04
-9.9019000000E+00,-1.041677E-03
-9.9018000000E+00,-8.333438E-04
-9.9017000000E+00,-1.041677E-03
-9.9016000000E+00,-1.250010E-03
-9.9015000000E+00,-8.333438E-04
-9.9014000000E+00,-8.333438E-04
-9.9013000000E+00,-1.041677E-03
-9.9012000000E+00,-1.041677E-03
-9.9011000000E+00,-8.333438E-04
-9.9010000000E+00,-1.250010E-03
-9.9009000000E+00,-1.041677E-03
-9.9008000000E+00,-8.333438E-04
-9.9007000000E+00,-4.166772E-04
-9.9006000000E+00,-1.041677E-03
-9.9005000000E+00,-4.166772E-04
-9.9004000000E+00,-6.250105E-04
-9.9003000000E+00,-8.333438E-04
-9.9002000000E+00,-6.250105E-04
-9.9001000000E+00,-8.333438E-04
-9.9000000000E+00,-1.458344E-03
-9.8999000000E+00,-1.041677E-03
-9.8998000000E+00,-4.166772E-04
-9.8997000000E+00,-8.333438E-04
-9.8996000000E+00,-1.458344E-03
-9.8995000000E+00,-8.333438E-04
-9.8994000000E+00,-8.333438E-04
-9.8993000000E+00,-8.333438E-04
-9.8992000000E+00,-8.333438E-04
-9.8991000000E+00,-1.250010E-03
-9.8990000000E+00,-8.333438E-04
-9.8989000000E+00,-1.250010E-03
-9.8988000000E+00,-1.041677E-03
-9.8987000000E+00,-8.333438E-04
-9.8986000000E+00,-6.250105E-04
-9.8985000000E+00,-2.083438E-04
-9.8984000000E+00,-1.041677E-03
-9.8983000000E+00,-1.250010E-03
-9.8982000000E+00,-8.333438E-04
-9.8981000000E+00,-6.250105E-04
-9.8980000000E+00,-8.333438E-04
-9.8979000000E+00,-8.333438E-04
-9.8978000000E+00,-6.250105E-04
-9.8977000000E+00,-8.333438E-04
-9.8976000000E+00,-6.250105E-04
-9.8975000000E+00,-8.333438E-04
-9.8974000000E+00,-8.333438E-04
-9.8973000000E+00,-8.333438E-04
-9.8972000000E+00,-8.333438E-04
-9.8971000000E+00,-1.458344E-03
-9.8970000000E+00,-1.041677E-03
-9.8969000000E+00,-1.041677E-03
-9.8968000000E+00,-8.333438E-04
-9.8967000000E+00,-8.333438E-04
-9.8966000000E+00,-8.333438E-04
-9.8965000000E+00,-6.250105E-04
-9.8964000000E+00,-4.166772E-04
-9.8963000000E+00,-1.041677E-03
-9.8962000000E+00,-6.250105E-04
-9.8961000000E+00,-1.041677E-03
-9.8960000000E+00,-2.083438E-04
-9.8959000000E+00,-8.333438E-04
-9.8958000000E+00,-8.333438E-04
-9.8957000000E+00,-1.041677E-03
-9.8956000000E+00,-1.041677E-03
-9.8955000000E+00,-1.250010E-03
-9.8954000000E+00,-4.166772E-04
-9.8953000000E+00,-1.250010E-03
-9.8952000000E+00,-4.166772E-04
-9.8951000000E+00,-1.250010E-03
-9.8950000000E+00,-8.333438E-04
-9.8949000000E+00,-1.041677E-03
-9.8948000000E+00,-8.333438E-04
-9.8947000000E+00,-1.041677E-03
-9.8946000000E+00,-2.083438E-04
-9.8945000000E+00,-6.250105E-04
-9.8944000000E+00,-4.166772E-04
-9.8943000000E+00,-1.041677E-03
-9.8942000000E+00,-1.041677E-03
-9.8941000000E+00,-1.041677E-03
-9.8940000000E+00,-1.041677E-03
-9.8939000000E+00,-1.041677E-03
-9.8938000000E+00,-1.250010E-03
-9.8937000000E+00,-1.250010E-03
-9.8936000000E+00,-1.041677E-03
-9.8935000000E+00,-1.666677E-03
-9.8934000000E+00,-8.333438E-04
-9.8933000000E+00,-8.333438E-04
-9.8932000000E+00,-8.333438E-04
-9.8931000000E+00,-1.250010E-03
-9.8930000000E+00,-8.333438E-04
-9.8929000000E+00,-6.250105E-04
-9.8928000000E+00,-8.333438E-04
-9.8927000000E+00,-6.250105E-04
-9.8926000000E+00,-6.250105E-04
-9.8925000000E+00,-1.250010E-03
-9.8924000000E+00,-8.333438E-04
-9.8923000000E+00,-8.333438E-04
-9.8922000000E+00,-1.041677E-03
-9.8921000000E+00,-1.250010E-03
-9.8920000000E+00,-8.333438E-04
-9.8919000000E+00,-8.333438E-04
-9.8918000000E+00,-1.250010E-03
-9.8917000000E+00,-8.333438E-04
-9.8916000000E+00,-8.333438E-04
-9.8915000000E+00,-6.250105E-04
-9.8914000000E+00,-1.458344E-03
-9.8913000000E+00,-8.333438E-04
-9.8912000000E+00,-8.333438E-04
-9.8911000000E+00,-1.458344E-03
-9.8910000000E+00,-8.333438E-04
-9.8909000000E+00,-1.041677E-03
-9.8908000000E+00,-1.041677E-03
-9.8907000000E+00,-8.333438E-04
-9.8906000000E+00,-8.333438E-04
-9.8905000000E+00,-6.250105E-04
-9.8904000000E+00,-8.333438E-04
-9.8903000000E+00,-8.333438E-04
-9.8902000000E+00,-8.333438E-04
-9.8901000000E+00,-8.333438E-04
-9.8900000000E+00,-4.166772E-04
-9.8899000000E+00,-6.250105E-04
-9.8898000000E+00,-8.333438E-04
-9.8897000000E+00,-8.333438E-04
-9.8896000000E+00,-1.250010E-03
-9.8895000000E+00,-6.250105E-04
-9.8894000000E+00,-8.333438E-04
-9.8893000000E+00,-6.250105E-04
-9.8892000000E+00,-1.666677E-03
-9.8891000000E+00,-8.333438E-04
-9.8890000000E+00,-4.166772E-04
-9.8889000000E+00,-8.333438E-04
-9.8888000000E+00,-1.041677E-03
-9.8887000000E+00,-8.333438E-04
-9.8886000000E+00,-1.666677E-03
-9.8885000000E+00,-1.041677E-03
-9.8884000000E+00,-1.250010E-03
-9.8883000000E+00,-1.250010E-03
-9.8882000000E+00,-8.333438E-04
-9.8881000000E+00,-1.041677E-03
-9.8880000000E+00,-1.458344E-03
-9.8879000000E+00,-1.041677E-03
-9.8878000000E+00,-6.250105E-04
-9.8877000000E+00,-1.458344E-03
-9.8876000000E+00,-8.333438E-04
-9.8875000000E+00,-8.333438E-04
-9.8874000000E+00,-1.041677E-03
-9.8873000000E+00,-1.250010E-03
-9.8872000000E+00,-1.041677E-03
-9.8871000000E+00,-1.250010E-03
-9.8870000000E+00,-6.250105E-04
-9.8869000000E+00,-1.041677E-03
-9.8868000000E+00,-1.250010E-03
-9.8867000000E+00,-8.333438E-04
-9.8866000000E+00,-1.041677E-03
-9.8865000000E+00,-4.166772E-04
-9.8864000000E+00,-8.333438E-04
-9.8863000000E+00,-6.250105E-04
-9.8862000000E+00,-6.250105E-04
-9.8861000000E+00,-6.250105E-04
-9.8860000000E+00,-1.250010E-03
-9.8859000000E+00,-1.250010E-03
-9.8858000000E+00,-1.250010E-03
-9.8857000000E+00,-8.333438E-04
-9.8856000000E+00,-1.041677E-03
-9.8855000000E+00,-8.333438E-04
-9.8854000000E+00,-1.666677E-03
-9.8853000000E+00,-1.041677E-03
-9.8852000000E+00,-4.166772E-04
-9.8851000000E+00,-6.250105E-04
-9.8850000000E+00,-4.166772E-04
-9.8849000000E+00,-6.250105E-04
-9.8848000000E+00,-6.250105E-04
-9.8847000000E+00,-8.333438E-04
-9.8846000000E+00,-8.333438E-04
-9.8845000000E+00,-1.041677E-03
-9.8844000000E+00,-1.041677E-03
-9.8843000000E+00,-1.041677E-03
-9.8842000000E+00,-8.333438E-04
-9.8841000000E+00,-1.250010E-03
-9.8840000000E+00,-2.083438E-04
-9.8839000000E+00,-1.250010E-03
-9.8838000000E+00,-8.333438E-04
-9.8837000000E+00,-1.041677E-03
-9.8836000000E+00,-4.166772E-04
-9.8835000000E+00,-1.041677E-03
-9.8834000000E+00,-6.250105E-04
-9.8833000000E+00,-1.041677E-03
-9.8832000000E+00,-1.250010E-03
-9.8831000000E+00,-1.041677E-03
-9.8830000000E+00,-1.250010E-03
-9.8829000000E+00,-8.333438E-04
-9.8828000000E+00,-6.250105E-04
-9.8827000000E+00,-6.250105E-04
-9.8826000000E+00,-8.333438E-04
-9.8825000000E+00,-8.333438E-04
-9.8824000000E+00,-4.166772E-04
-9.8823000000E+00,-1.041677E-03
-9.8822000000E+00,-4.166772E-04
-9.8821000000E+00,-8.333438E-04
-9.8820000000E+00,-1.041677E-03
-9.8819000000E+00,-4.166772E-04
-9.8818000000E+00,-1.250010E-03
-9.8817000000E+00,-1.041677E-03
